%YAML 1.1
%TAG !u! tag:unity3d.com,2011:
--- !u!1 &5808828546651227651
GameObject:
  m_ObjectHideFlags: 0
  m_CorrespondingSourceObject: {fileID: 0}
  m_PrefabInstance: {fileID: 0}
  m_PrefabAsset: {fileID: 0}
  serializedVersion: 6
  m_Component:
  - component: {fileID: 7763236279250829412}
  m_Layer: 0
  m_Name: tree_04
  m_TagString: Untagged
  m_Icon: {fileID: 0}
  m_NavMeshLayer: 0
  m_StaticEditorFlags: 0
  m_IsActive: 1
--- !u!4 &7763236279250829412
Transform:
  m_ObjectHideFlags: 0
  m_CorrespondingSourceObject: {fileID: 0}
  m_PrefabInstance: {fileID: 0}
  m_PrefabAsset: {fileID: 0}
  m_GameObject: {fileID: 5808828546651227651}
  m_LocalRotation: {x: 0, y: 0, z: 0, w: 1}
  m_LocalPosition: {x: -24.670397, y: 48.671143, z: -10.120096}
  m_LocalScale: {x: 1, y: 1, z: 1}
  m_ConstrainProportionsScale: 0
  m_Children:
  - {fileID: 4815453322182393016}
  m_Father: {fileID: 0}
  m_RootOrder: 0
  m_LocalEulerAnglesHint: {x: 0, y: 0, z: 0}
--- !u!1001 &4997117848214739795
PrefabInstance:
  m_ObjectHideFlags: 0
  serializedVersion: 2
  m_Modification:
    m_TransformParent: {fileID: 7763236279250829412}
    m_Modifications:
    - target: {fileID: -8679921383154817045, guid: 92d2e3f52bf6b4ddeafe5b69ffc7a594, type: 3}
      propertyPath: m_RootOrder
      value: 0
      objectReference: {fileID: 0}
    - target: {fileID: -8679921383154817045, guid: 92d2e3f52bf6b4ddeafe5b69ffc7a594, type: 3}
      propertyPath: m_LocalScale.x
      value: 10
      objectReference: {fileID: 0}
    - target: {fileID: -8679921383154817045, guid: 92d2e3f52bf6b4ddeafe5b69ffc7a594, type: 3}
      propertyPath: m_LocalScale.y
      value: 10
      objectReference: {fileID: 0}
    - target: {fileID: -8679921383154817045, guid: 92d2e3f52bf6b4ddeafe5b69ffc7a594, type: 3}
      propertyPath: m_LocalScale.z
      value: 10
      objectReference: {fileID: 0}
    - target: {fileID: -8679921383154817045, guid: 92d2e3f52bf6b4ddeafe5b69ffc7a594, type: 3}
      propertyPath: m_LocalPosition.x
      value: 50.770397
      objectReference: {fileID: 0}
    - target: {fileID: -8679921383154817045, guid: 92d2e3f52bf6b4ddeafe5b69ffc7a594, type: 3}
      propertyPath: m_LocalPosition.y
      value: -48.671143
      objectReference: {fileID: 0}
    - target: {fileID: -8679921383154817045, guid: 92d2e3f52bf6b4ddeafe5b69ffc7a594, type: 3}
      propertyPath: m_LocalPosition.z
      value: 81.9201
      objectReference: {fileID: 0}
    - target: {fileID: -8679921383154817045, guid: 92d2e3f52bf6b4ddeafe5b69ffc7a594, type: 3}
      propertyPath: m_LocalRotation.w
      value: 0.5
      objectReference: {fileID: 0}
    - target: {fileID: -8679921383154817045, guid: 92d2e3f52bf6b4ddeafe5b69ffc7a594, type: 3}
      propertyPath: m_LocalRotation.x
      value: -0.5
      objectReference: {fileID: 0}
    - target: {fileID: -8679921383154817045, guid: 92d2e3f52bf6b4ddeafe5b69ffc7a594, type: 3}
      propertyPath: m_LocalRotation.y
      value: -0.5
      objectReference: {fileID: 0}
    - target: {fileID: -8679921383154817045, guid: 92d2e3f52bf6b4ddeafe5b69ffc7a594, type: 3}
      propertyPath: m_LocalRotation.z
      value: -0.5
      objectReference: {fileID: 0}
    - target: {fileID: -8679921383154817045, guid: 92d2e3f52bf6b4ddeafe5b69ffc7a594, type: 3}
      propertyPath: m_LocalEulerAnglesHint.x
      value: 0
      objectReference: {fileID: 0}
    - target: {fileID: -8679921383154817045, guid: 92d2e3f52bf6b4ddeafe5b69ffc7a594, type: 3}
      propertyPath: m_LocalEulerAnglesHint.y
      value: 0
      objectReference: {fileID: 0}
    - target: {fileID: -8679921383154817045, guid: 92d2e3f52bf6b4ddeafe5b69ffc7a594, type: 3}
      propertyPath: m_LocalEulerAnglesHint.z
      value: 0
      objectReference: {fileID: 0}
    - target: {fileID: -8679921383154817045, guid: 92d2e3f52bf6b4ddeafe5b69ffc7a594, type: 3}
      propertyPath: m_ConstrainProportionsScale
      value: 1
      objectReference: {fileID: 0}
    - target: {fileID: 919132149155446097, guid: 92d2e3f52bf6b4ddeafe5b69ffc7a594, type: 3}
      propertyPath: m_Name
      value: Tree_04
      objectReference: {fileID: 0}
    m_RemovedComponents: []
  m_SourcePrefab: {fileID: 100100000, guid: 92d2e3f52bf6b4ddeafe5b69ffc7a594, type: 3}
--- !u!4 &4815453322182393016 stripped
Transform:
  m_CorrespondingSourceObject: {fileID: -8679921383154817045, guid: 92d2e3f52bf6b4ddeafe5b69ffc7a594, type: 3}
  m_PrefabInstance: {fileID: 4997117848214739795}
  m_PrefabAsset: {fileID: 0}
