%YAML 1.1
%TAG !u! tag:unity3d.com,2011:
--- !u!1045 &1
EditorBuildSettings:
  m_ObjectHideFlags: 0
  serializedVersion: 2
  m_Scenes:
  - enabled: 1
    path: Assets/Scenes/Butbird_Scenes/LevelCompositionLogic.unity
    guid: d480d1b08266a694e8245cc486f9b006
  - enabled: 1
    path: Assets/Scenes/Butbird_Scenes/IntroScene.unity
    guid: 16807eb8ef201f34392d8b4f3f29f872
  - enabled: 1
    path: Assets/Scenes/Butbird_Scenes/level1.unity
    guid: 9f921d9243fc74649816b6b7a46f398b
  m_configObjects: {}
